^D:\PROJECTS CPP\HELLO SKILLBOX\HELLOWORLD\HELLOWORLD\HELLOWORLD.CPP
D:\PROJECTS CPP\HELLO SKILLBOX\HELLOWORLD\HELLOWORLD\RELEASE\VC142.PDB
D:\PROJECTS CPP\HELLO SKILLBOX\HELLOWORLD\HELLOWORLD\RELEASE\HELLOWORLD.OBJ
