^D:\PROJECTS CPP\HELLO SKILLBOX\HELLOWORLD\HELLOWORLD\RELEASE\HELLOWORLD.OBJ
D:\PROJECTS CPP\HELLO SKILLBOX\HELLOWORLD\RELEASE\HELLOWORLD.EXE
D:\PROJECTS CPP\HELLO SKILLBOX\HELLOWORLD\RELEASE\HELLOWORLD.PDB
